{
  "Comment.nvim": { "branch": "master", "commit": "0236521ea582747b58869cb72f70ccfa967d2e89" },
  "LuaSnip": { "branch": "master", "commit": "8ae1dedd988eb56441b7858bd1e8554dfadaa46d" },
  "cmp-buffer": { "branch": "main", "commit": "3022dbc9166796b644a841a02de8dd1cc1d311fa" },
  "cmp-cmdline": { "branch": "main", "commit": "8ee981b4a91f536f52add291594e89fb6645e451" },
  "cmp-luasnip-choice": { "branch": "master", "commit": "4f49232e51c9df379b9daf43f25f7ee6320450f0" },
  "cmp-nvim-lsp": { "branch": "main", "commit": "5af77f54de1b16c34b23cba810150689a3a90312" },
  "cmp-path": { "branch": "main", "commit": "91ff86cd9c29299a64f968ebb45846c485725f23" },
  "diffview.nvim": { "branch": "main", "commit": "3dc498c9777fe79156f3d32dddd483b8b3dbd95f" },
  "dressing.nvim": { "branch": "master", "commit": "94b0d24483d56f3777ee0c8dc51675f21709318c" },
  "fidget.nvim": { "branch": "main", "commit": "0ba1e16d07627532b6cae915cc992ecac249fb97" },
  "gitlab.nvim": { "branch": "main", "commit": "37a53842d0434a6c94441c5d72f900185352371e" },
  "gitsigns.nvim": { "branch": "main", "commit": "d195f0c35ced5174d3ecce1c4c8ebb3b5bc23fa9" },
  "indent-blankline.nvim": { "branch": "master", "commit": "5da5546947f3125dfd6aa85ab21074dc83f776d5" },
  "lazy.nvim": { "branch": "main", "commit": "96584866b9c5e998cbae300594d0ccfd0c464627" },
  "lsp_signature.nvim": { "branch": "master", "commit": "fed2c8389c148ff1dfdcdca63c2b48d08a50dea0" },
  "messages.nvim": { "branch": "main", "commit": "24dbb56829d1ed2d8d878e9f5547478441838567" },
  "moonfly": { "branch": "master", "commit": "4da1ee42648df987cd97818e47487a3f214bea9d" },
  "none-ls.nvim": { "branch": "main", "commit": "e7382de51b4cf629e56f1fa18192e716e5ba8145" },
  "nui.nvim": { "branch": "main", "commit": "80445d015d2b5f9af0d9e8bce63d303bc86eda8a" },
  "nvim-autopairs": { "branch": "master", "commit": "9fd41181693dd4106b3e414a822bb6569924de81" },
  "nvim-cmp": { "branch": "main", "commit": "538e37ba87284942c1d76ed38dd497e54e65b891" },
  "nvim-dap": { "branch": "master", "commit": "f0dca670fa059eb89dda8869a6310c804241345c" },
  "nvim-dap-go": { "branch": "main", "commit": "a5cc8dcad43f0732585d4793deb02a25c4afb766" },
  "nvim-dap-ui": { "branch": "master", "commit": "34160a7ce6072ef332f350ae1d4a6a501daf0159" },
  "nvim-lspconfig": { "branch": "master", "commit": "9bedcfed749755e43fc8bed46f85ce2044fe3b77" },
  "nvim-notify": { "branch": "master", "commit": "ebcdd8219e2a2cbc0a4bef68002f6867f1fde269" },
  "nvim-treesitter": { "branch": "master", "commit": "e49f1e8ef3e8450a8446cb1f2bbb53c919f60b6d" },
  "nvim-treesitter-context": { "branch": "master", "commit": "652ec514d6ba8bc4a3c2de76c855fe668e2c7196" },
  "nvim-treesitter-textobjects": { "branch": "master", "commit": "85b9d0cbd4ff901abcda862b50dbb34e0901848b" },
  "nvim-web-devicons": { "branch": "master", "commit": "cff25ce621e6d15fae0b0bfe38c00be50ce38468" },
  "oil.nvim": { "branch": "master", "commit": "523b61430cb7365f8f86609c2ea60e48456bac63" },
  "plenary.nvim": { "branch": "master", "commit": "55d9fe89e33efd26f532ef20223e5f9430c8b0c0" },
  "telescope-dap.nvim": { "branch": "master", "commit": "4e2d5efb92062f0b865fe59b200b5ed7793833bf" },
  "telescope-file-browser.nvim": { "branch": "master", "commit": "4bd5657b14b58e069287f5ac591a647bb860b2ed" },
  "telescope-fzf-native.nvim": { "branch": "main", "commit": "6c921ca12321edaa773e324ef64ea301a1d0da62" },
  "telescope.nvim": { "branch": "0.1.x", "commit": "d90956833d7c27e73c621a61f20b29fdb7122709" },
  "vim-abolish": { "branch": "master", "commit": "dcbfe065297d31823561ba787f51056c147aa682" },
  "vim-dispatch": { "branch": "master", "commit": "6cc2691576f97d43f8751664d1a1a908b99927e5" },
  "vim-fugitive": { "branch": "master", "commit": "59659093581aad2afacedc81f009ed6a4bfad275" },
  "vim-illuminate": { "branch": "master", "commit": "3bd2ab64b5d63b29e05691e624927e5ebbf0fb86" },
  "vim-matchup": { "branch": "master", "commit": "2550178c43464134ce65328da458905f70dbe041" },
  "vim-puppet": { "branch": "master", "commit": "81943d532dee24f8518f855dfb17160809abfdfb" },
  "vim-repeat": { "branch": "master", "commit": "24afe922e6a05891756ecf331f39a1f6743d3d5a" },
  "vim-surround": { "branch": "master", "commit": "3d188ed2113431cf8dac77be61b842acb64433d9" },
  "vim-terraform": { "branch": "master", "commit": "d37ae7e7828aa167877e338dea5d4e1653ed3eb1" },
  "vim-unimpaired": { "branch": "master", "commit": "6d44a6dc2ec34607c41ec78acf81657248580bf1" }
}